%YAML 1.1
%TAG !u! tag:unity3d.com,2011:
--- !u!74 &7400000
AnimationClip:
  m_ObjectHideFlags: 0
  m_PrefabParentObject: {fileID: 0}
  m_PrefabInternal: {fileID: 0}
  m_Name: EnemyAttack
  serializedVersion: 6
  m_Legacy: 0
  m_Compressed: 0
  m_UseHighQualityCurve: 1
  m_RotationCurves: []
  m_CompressedRotationCurves: []
  m_PositionCurves:
  - curve:
      serializedVersion: 2
      m_Curve:
      - time: 0
        value: {x: 1.83399999, y: -.579999983, z: 0}
        inSlope: {x: -2.44799995, y: 2.87999964, z: 0}
        outSlope: {x: -2.44799995, y: 2.87999964, z: 0}
        tangentMode: 0
      - time: .0833333358
        value: {x: 1.63, y: -.340000004, z: 0}
        inSlope: {x: -2.42400026, y: .119999886, z: 0}
        outSlope: {x: -2.42400026, y: .119999886, z: 0}
        tangentMode: 0
      - time: .166666672
        value: {x: 1.42999995, y: -.560000002, z: 0}
        inSlope: {x: -2.40000057, y: -2.63999987, z: 0}
        outSlope: {x: -2.40000057, y: -2.63999987, z: 0}
        tangentMode: 0
      m_PreInfinity: 2
      m_PostInfinity: 2
    path: 
  m_ScaleCurves: []
  m_FloatCurves: []
  m_PPtrCurves: []
  m_SampleRate: 60
  m_WrapMode: 0
  m_Bounds:
    m_Center: {x: 0, y: 0, z: 0}
    m_Extent: {x: 0, y: 0, z: 0}
  m_ClipBindingConstant:
    genericBindings:
    - path: 0
      attribute: 1
      script: {fileID: 0}
      classID: 4
      customType: 0
      isPPtrCurve: 0
    pptrCurveMapping: []
  m_AnimationClipSettings:
    serializedVersion: 2
    m_StartTime: 0
    m_StopTime: .166666672
    m_OrientationOffsetY: 0
    m_Level: 0
    m_CycleOffset: 0
    m_LoopTime: 1
    m_LoopBlend: 0
    m_LoopBlendOrientation: 0
    m_LoopBlendPositionY: 0
    m_LoopBlendPositionXZ: 0
    m_KeepOriginalOrientation: 0
    m_KeepOriginalPositionY: 1
    m_KeepOriginalPositionXZ: 0
    m_HeightFromFeet: 0
    m_Mirror: 0
  m_EditorCurves:
  - curve:
      serializedVersion: 2
      m_Curve:
      - time: 0
        value: 1.83399999
        inSlope: -2.44799995
        outSlope: -2.44799995
        tangentMode: 10
      - time: .0833333358
        value: 1.63
        inSlope: -2.42400026
        outSlope: -2.42400026
        tangentMode: 10
      - time: .166666672
        value: 1.42999995
        inSlope: -2.40000057
        outSlope: -2.40000057
        tangentMode: 10
      m_PreInfinity: 2
      m_PostInfinity: 2
    attribute: m_LocalPosition.x
    path: 
    classID: 4
    script: {fileID: 0}
  - curve:
      serializedVersion: 2
      m_Curve:
      - time: 0
        value: -.579999983
        inSlope: 2.87999964
        outSlope: 2.87999964
        tangentMode: 10
      - time: .0833333358
        value: -.340000004
        inSlope: .119999886
        outSlope: .119999886
        tangentMode: 10
      - time: .166666672
        value: -.560000002
        inSlope: -2.63999987
        outSlope: -2.63999987
        tangentMode: 10
      m_PreInfinity: 2
      m_PostInfinity: 2
    attribute: m_LocalPosition.y
    path: 
    classID: 4
    script: {fileID: 0}
  - curve:
      serializedVersion: 2
      m_Curve:
      - time: 0
        value: 0
        inSlope: 0
        outSlope: 0
        tangentMode: 10
      - time: .0833333358
        value: 0
        inSlope: 0
        outSlope: 0
        tangentMode: 10
      - time: .166666672
        value: 0
        inSlope: 0
        outSlope: 0
        tangentMode: 10
      m_PreInfinity: 2
      m_PostInfinity: 2
    attribute: m_LocalPosition.z
    path: 
    classID: 4
    script: {fileID: 0}
  m_EulerEditorCurves: []
  m_HasGenericRootTransform: 1
  m_HasMotionFloatCurves: 0
  m_GenerateMotionCurves: 0
  m_Events: []
