%YAML 1.1
%TAG !u! tag:unity3d.com,2011:
--- !u!74 &7400000
AnimationClip:
  m_ObjectHideFlags: 0
  m_PrefabParentObject: {fileID: 0}
  m_PrefabInternal: {fileID: 0}
  m_Name: Show
  serializedVersion: 6
  m_Legacy: 0
  m_Compressed: 0
  m_UseHighQualityCurve: 1
  m_RotationCurves:
  - curve:
      serializedVersion: 2
      m_Curve:
      - time: 0
        value: {x: .707106829, y: 0, z: 0, w: .707106709}
        inSlope: {x: -3.45952368, y: 0, z: 0, w: 3.19795465}
        outSlope: {x: -3.45952368, y: 0, z: 0, w: 3.19795465}
        tangentMode: 0
      - time: .0166666675
        value: {x: .649448097, y: 0, z: 0, w: .760405958}
        inSlope: {x: -3.57964563, y: 0, z: 0, w: 3.05730677}
        outSlope: {x: -3.57964563, y: 0, z: 0, w: 3.05730677}
        tangentMode: 0
      - time: .0333333351
        value: {x: .587785304, y: 0, z: 0, w: .809016943}
        inSlope: {x: -3.80848408, y: 0, z: 0, w: 2.76702547}
        outSlope: {x: -3.80848408, y: 0, z: 0, w: 2.76702547}
        tangentMode: 0
      - time: .0500000045
        value: {x: .522498608, y: 0, z: 0, w: .852640152}
        inSlope: {x: -4.01384258, y: 0, z: 0, w: 2.45968747}
        outSlope: {x: -4.01384258, y: 0, z: 0, w: 2.45968747}
        tangentMode: 0
      - time: .0666666701
        value: {x: .453990549, y: 0, z: 0, w: .891006529}
        inSlope: {x: -4.19445467, y: 0, z: 0, w: 2.13718081}
        outSlope: {x: -4.19445467, y: 0, z: 0, w: 2.13718081}
        tangentMode: 0
      - time: .0833333358
        value: {x: .382683456, y: 0, z: 0, w: .923879504}
        inSlope: {x: -4.34920597, y: 0, z: 0, w: 1.80149865}
        outSlope: {x: -4.34920597, y: 0, z: 0, w: 1.80149865}
        tangentMode: 0
      - time: .100000001
        value: {x: .309017032, y: 0, z: 0, w: .95105648}
        inSlope: {x: -4.47714233, y: 0, z: 0, w: 1.45471227}
        outSlope: {x: -4.47714233, y: 0, z: 0, w: 1.45471227}
        tangentMode: 0
      - time: .116666667
        value: {x: .233445391, y: 0, z: 0, w: .972369909}
        inSlope: {x: -4.57747555, y: 0, z: 0, w: 1.09895635}
        outSlope: {x: -4.57747555, y: 0, z: 0, w: 1.09895635}
        tangentMode: 0
      - time: .13333334
        value: {x: .156434491, y: 0, z: 0, w: .987688363}
        inSlope: {x: -4.64958763, y: 0, z: 0, w: .736421824}
        outSlope: {x: -4.64958763, y: 0, z: 0, w: .736421824}
        tangentMode: 0
      - time: .150000006
        value: {x: .0784591064, y: 0, z: 0, w: .996917307}
        inSlope: {x: -4.69303513, y: 0, z: 0, w: .369349152}
        outSlope: {x: -4.69303513, y: 0, z: 0, w: .369349152}
        tangentMode: 0
      - time: .166666672
        value: {x: 0, y: 0, z: 0, w: 1}
        inSlope: {x: -4.70754671, y: 0, z: 0, w: .184961572}
        outSlope: {x: -4.70754671, y: 0, z: 0, w: .184961572}
        tangentMode: 0
      m_PreInfinity: 2
      m_PostInfinity: 2
    path: 
  m_CompressedRotationCurves: []
  m_PositionCurves: []
  m_ScaleCurves: []
  m_FloatCurves: []
  m_PPtrCurves: []
  m_SampleRate: 60
  m_WrapMode: 0
  m_Bounds:
    m_Center: {x: 0, y: 0, z: 0}
    m_Extent: {x: 0, y: 0, z: 0}
  m_ClipBindingConstant:
    genericBindings:
    - path: 0
      attribute: 2
      script: {fileID: 0}
      classID: 4
      customType: 0
      isPPtrCurve: 0
    pptrCurveMapping: []
  m_AnimationClipSettings:
    serializedVersion: 2
    m_StartTime: 0
    m_StopTime: .166666672
    m_OrientationOffsetY: 0
    m_Level: 0
    m_CycleOffset: 0
    m_LoopTime: 0
    m_LoopBlend: 0
    m_LoopBlendOrientation: 0
    m_LoopBlendPositionY: 0
    m_LoopBlendPositionXZ: 0
    m_KeepOriginalOrientation: 0
    m_KeepOriginalPositionY: 1
    m_KeepOriginalPositionXZ: 0
    m_HeightFromFeet: 0
    m_Mirror: 0
  m_EditorCurves:
  - curve:
      serializedVersion: 2
      m_Curve:
      - time: 0
        value: .707106829
        inSlope: -3.45952368
        outSlope: -3.45952368
        tangentMode: 0
      - time: .0166666675
        value: .649448097
        inSlope: -3.57964563
        outSlope: -3.57964563
        tangentMode: 0
      - time: .0333333351
        value: .587785304
        inSlope: -3.80848408
        outSlope: -3.80848408
        tangentMode: 0
      - time: .0500000045
        value: .522498608
        inSlope: -4.01384258
        outSlope: -4.01384258
        tangentMode: 0
      - time: .0666666701
        value: .453990549
        inSlope: -4.19445467
        outSlope: -4.19445467
        tangentMode: 0
      - time: .0833333358
        value: .382683456
        inSlope: -4.34920597
        outSlope: -4.34920597
        tangentMode: 0
      - time: .100000001
        value: .309017032
        inSlope: -4.47714233
        outSlope: -4.47714233
        tangentMode: 0
      - time: .116666667
        value: .233445391
        inSlope: -4.57747555
        outSlope: -4.57747555
        tangentMode: 0
      - time: .13333334
        value: .156434491
        inSlope: -4.64958763
        outSlope: -4.64958763
        tangentMode: 0
      - time: .150000006
        value: .0784591064
        inSlope: -4.69303513
        outSlope: -4.69303513
        tangentMode: 0
      - time: .166666672
        value: 0
        inSlope: -4.70754671
        outSlope: -4.70754671
        tangentMode: 0
      m_PreInfinity: 2
      m_PostInfinity: 2
    attribute: m_LocalRotation.x
    path: 
    classID: 224
    script: {fileID: 0}
  - curve:
      serializedVersion: 2
      m_Curve:
      - time: 0
        value: 0
        inSlope: 0
        outSlope: 0
        tangentMode: 0
      - time: .0166666675
        value: 0
        inSlope: 0
        outSlope: 0
        tangentMode: 0
      - time: .0333333351
        value: 0
        inSlope: 0
        outSlope: 0
        tangentMode: 0
      - time: .0500000045
        value: 0
        inSlope: 0
        outSlope: 0
        tangentMode: 0
      - time: .0666666701
        value: 0
        inSlope: 0
        outSlope: 0
        tangentMode: 0
      - time: .0833333358
        value: 0
        inSlope: 0
        outSlope: 0
        tangentMode: 0
      - time: .100000001
        value: 0
        inSlope: 0
        outSlope: 0
        tangentMode: 0
      - time: .116666667
        value: 0
        inSlope: 0
        outSlope: 0
        tangentMode: 0
      - time: .13333334
        value: 0
        inSlope: 0
        outSlope: 0
        tangentMode: 0
      - time: .150000006
        value: 0
        inSlope: 0
        outSlope: 0
        tangentMode: 0
      - time: .166666672
        value: 0
        inSlope: 0
        outSlope: 0
        tangentMode: 0
      m_PreInfinity: 2
      m_PostInfinity: 2
    attribute: m_LocalRotation.y
    path: 
    classID: 224
    script: {fileID: 0}
  - curve:
      serializedVersion: 2
      m_Curve:
      - time: 0
        value: 0
        inSlope: 0
        outSlope: 0
        tangentMode: 0
      - time: .0166666675
        value: 0
        inSlope: 0
        outSlope: 0
        tangentMode: 0
      - time: .0333333351
        value: 0
        inSlope: 0
        outSlope: 0
        tangentMode: 0
      - time: .0500000045
        value: 0
        inSlope: 0
        outSlope: 0
        tangentMode: 0
      - time: .0666666701
        value: 0
        inSlope: 0
        outSlope: 0
        tangentMode: 0
      - time: .0833333358
        value: 0
        inSlope: 0
        outSlope: 0
        tangentMode: 0
      - time: .100000001
        value: 0
        inSlope: 0
        outSlope: 0
        tangentMode: 0
      - time: .116666667
        value: 0
        inSlope: 0
        outSlope: 0
        tangentMode: 0
      - time: .13333334
        value: 0
        inSlope: 0
        outSlope: 0
        tangentMode: 0
      - time: .150000006
        value: 0
        inSlope: 0
        outSlope: 0
        tangentMode: 0
      - time: .166666672
        value: 0
        inSlope: 0
        outSlope: 0
        tangentMode: 0
      m_PreInfinity: 2
      m_PostInfinity: 2
    attribute: m_LocalRotation.z
    path: 
    classID: 224
    script: {fileID: 0}
  - curve:
      serializedVersion: 2
      m_Curve:
      - time: 0
        value: .707106709
        inSlope: 3.19795465
        outSlope: 3.19795465
        tangentMode: 0
      - time: .0166666675
        value: .760405958
        inSlope: 3.05730677
        outSlope: 3.05730677
        tangentMode: 0
      - time: .0333333351
        value: .809016943
        inSlope: 2.76702547
        outSlope: 2.76702547
        tangentMode: 0
      - time: .0500000045
        value: .852640152
        inSlope: 2.45968747
        outSlope: 2.45968747
        tangentMode: 0
      - time: .0666666701
        value: .891006529
        inSlope: 2.13718081
        outSlope: 2.13718081
        tangentMode: 0
      - time: .0833333358
        value: .923879504
        inSlope: 1.80149865
        outSlope: 1.80149865
        tangentMode: 0
      - time: .100000001
        value: .95105648
        inSlope: 1.45471227
        outSlope: 1.45471227
        tangentMode: 0
      - time: .116666667
        value: .972369909
        inSlope: 1.09895635
        outSlope: 1.09895635
        tangentMode: 0
      - time: .13333334
        value: .987688363
        inSlope: .736421824
        outSlope: .736421824
        tangentMode: 0
      - time: .150000006
        value: .996917307
        inSlope: .369349152
        outSlope: .369349152
        tangentMode: 0
      - time: .166666672
        value: 1
        inSlope: .184961572
        outSlope: .184961572
        tangentMode: 0
      m_PreInfinity: 2
      m_PostInfinity: 2
    attribute: m_LocalRotation.w
    path: 
    classID: 224
    script: {fileID: 0}
  m_EulerEditorCurves:
  - curve:
      serializedVersion: 2
      m_Curve:
      - time: 0
        value: 90
        inSlope: -540
        outSlope: -540
        tangentMode: 10
      - time: .166666672
        value: 0
        inSlope: -540
        outSlope: -540
        tangentMode: 10
      m_PreInfinity: 2
      m_PostInfinity: 2
    attribute: localEulerAnglesBaked.x
    path: 
    classID: 224
    script: {fileID: 0}
  - curve:
      serializedVersion: 2
      m_Curve:
      - time: 0
        value: 0
        inSlope: 0
        outSlope: 0
        tangentMode: 10
      - time: .166666672
        value: 0
        inSlope: 0
        outSlope: 0
        tangentMode: 10
      m_PreInfinity: 2
      m_PostInfinity: 2
    attribute: localEulerAnglesBaked.y
    path: 
    classID: 224
    script: {fileID: 0}
  - curve:
      serializedVersion: 2
      m_Curve:
      - time: 0
        value: 0
        inSlope: 0
        outSlope: 0
        tangentMode: 10
      - time: .166666672
        value: 0
        inSlope: 0
        outSlope: 0
        tangentMode: 10
      m_PreInfinity: 2
      m_PostInfinity: 2
    attribute: localEulerAnglesBaked.z
    path: 
    classID: 224
    script: {fileID: 0}
  m_HasGenericRootTransform: 1
  m_HasMotionFloatCurves: 0
  m_GenerateMotionCurves: 0
  m_Events: []
