%YAML 1.1
%TAG !u! tag:unity3d.com,2011:
--- !u!1 &191370
GameObject:
  m_ObjectHideFlags: 0
  m_PrefabParentObject: {fileID: 0}
  m_PrefabInternal: {fileID: 100100000}
  serializedVersion: 4
  m_Component:
  - 4: {fileID: 491756}
  - 114: {fileID: 11489914}
  m_Layer: 0
  m_Name: Level2
  m_TagString: GameController
  m_Icon: {fileID: 0}
  m_NavMeshLayer: 0
  m_StaticEditorFlags: 0
  m_IsActive: 1
--- !u!4 &491756
Transform:
  m_ObjectHideFlags: 1
  m_PrefabParentObject: {fileID: 0}
  m_PrefabInternal: {fileID: 100100000}
  m_GameObject: {fileID: 191370}
  m_LocalRotation: {x: 0, y: 0, z: 0, w: 1}
  m_LocalPosition: {x: 0, y: 0, z: 0}
  m_LocalScale: {x: 1, y: 1, z: 1}
  m_Children: []
  m_Father: {fileID: 0}
  m_RootOrder: 0
--- !u!114 &11489914
MonoBehaviour:
  m_ObjectHideFlags: 1
  m_PrefabParentObject: {fileID: 0}
  m_PrefabInternal: {fileID: 100100000}
  m_GameObject: {fileID: 191370}
  m_Enabled: 1
  m_EditorHideFlags: 0
  m_Script: {fileID: 11500000, guid: 77c664ac721b851448b23db0f3f436d7, type: 3}
  m_Name: 
  m_EditorClassIdentifier: 
  state: 0
  UnlocksLevel: 0
  levelName: 0
  levelToUnlock: 0
  availableOperators: 03000000010000000200000000000000
  timeLeft: 20
  node: {fileID: 183102, guid: dc2a8ebddcdfe5e4eb246cfc264ac2da, type: 2}
  startTime: 0
  hasMandatory: 1
  mandatoryValue: 3
  numberRange: {x: 1, y: 9}
  divisonRange: {x: 2, y: 10}
  amountToAnswer: 2
--- !u!1001 &100100000
Prefab:
  m_ObjectHideFlags: 1
  serializedVersion: 2
  m_Modification:
    m_TransformParent: {fileID: 0}
    m_Modifications: []
    m_RemovedComponents: []
  m_ParentPrefab: {fileID: 0}
  m_RootGameObject: {fileID: 191370}
  m_IsPrefabParent: 1
